{
  "extras": [
    "lazyvim.plugins.extras.editor.aerial",
    "lazyvim.plugins.extras.editor.dial",
    "lazyvim.plugins.extras.editor.leap",
    "lazyvim.plugins.extras.formatting.black",
    "lazyvim.plugins.extras.formatting.prettier",
    "lazyvim.plugins.extras.lang.docker",
    "lazyvim.plugins.extras.lang.json",
    "lazyvim.plugins.extras.lang.markdown",
    "lazyvim.plugins.extras.lang.python",
    "lazyvim.plugins.extras.lang.ruby",
    "lazyvim.plugins.extras.lang.terraform",
    "lazyvim.plugins.extras.lang.yaml",
    "lazyvim.plugins.extras.util.project"
  ],
  "news": {
    "NEWS.md": "10960"
  },
  "version": 7
}